{
  "NavBar": {
    "main": "Home",
    "create_page": "Create Trip",
    "list_page": "My Trips",
    "itinerary_page": "My Itinerary",
    "settings_page": "Settings",
    "signIn": "Sign in",
    "signUp": "Sign up",
    "logOut": "Log out"
  }
}
